<svg width="342" height="250" viewBox="0 0 342 250" fill="none" xmlns="http://www.w3.org/2000/svg">
<path d="M331.982 58.9995L151.563 239.406C138.203 252.769 116.53 252.769 103.157 239.406L10.0235 146.266C-3.34182 132.903 -3.34182 111.228 10.0235 97.8626C23.3914 84.4947 45.0622 84.4947 58.4241 97.8575L127.367 166.801L283.574 10.5938C296.942 -2.77405 318.614 -2.76392 331.977 10.5938C345.34 23.9592 345.34 45.6266 331.982 58.9995Z" fill="#FCDAB7"/>
</svg>
