<svg width="1440" height="70" viewBox="0 0 1440 70" fill="none" xmlns="http://www.w3.org/2000/svg">
<path d="M1440.01 35.84L1379.19 25.8258C1318.37 15.8117 1196.73 -4.21667 1074.85 0.790411C952.982 5.7975 830.879 35.84 708.915 50.8613C586.951 65.8825 465.125 65.8825 343.33 62.534C221.534 59.3107 99.7715 52.426 38.8883 49.2027L-21.9937 45.8542L-22.2705 75.8967L38.6424 75.8967C99.5553 75.8967 221.381 75.8967 343.207 75.8967C465.033 75.8967 586.859 75.8967 708.685 75.8967C830.51 75.8967 952.336 75.8967 1074.16 75.8967C1195.99 75.8967 1317.81 75.8967 1378.73 75.8967L1439.64 75.8967L1440.01 35.84Z" fill="#FCDAB7"/>
</svg>
